\relax 
\providecommand\hyper@newdestlabel[2]{}
\providecommand\HyperFirstAtBeginDocument{\AtBeginDocument}
\HyperFirstAtBeginDocument{\ifx\hyper@anchor\@undefined
\global\let\oldcontentsline\contentsline
\gdef\contentsline#1#2#3#4{\oldcontentsline{#1}{#2}{#3}}
\global\let\oldnewlabel\newlabel
\gdef\newlabel#1#2{\newlabelxx{#1}#2}
\gdef\newlabelxx#1#2#3#4#5#6{\oldnewlabel{#1}{{#2}{#3}}}
\AtEndDocument{\ifx\hyper@anchor\@undefined
\let\contentsline\oldcontentsline
\let\newlabel\oldnewlabel
\fi}
\fi}
\global\let\hyper@last\relax 
\gdef\HyperFirstAtBeginDocument#1{#1}
\providecommand\HyField@AuxAddToFields[1]{}
\providecommand\HyField@AuxAddToCoFields[2]{}
\providecommand \oddpage@label [2]{}
\@writefile{toc}{\@ifundefined {etoctocstyle}{\let \etoc@startlocaltoc \@gobble \let \etoc@settocdepth \@gobble \let \etoc@depthtag \@gobble \let \etoc@setlocaltop \@gobble }{}}
\@writefile{toc}{\contentsline {chapter}{\numberline {1}Hierarchical Index}{1}{chapter.1}\protected@file@percent }
\@writefile{lof}{\addvspace {10\p@ }}
\@writefile{lot}{\addvspace {10\p@ }}
\@writefile{toc}{\contentsline {section}{\numberline {1.1}Class Hierarchy}{1}{section.1.1}\protected@file@percent }
\@writefile{toc}{\contentsline {chapter}{\numberline {2}Class Index}{3}{chapter.2}\protected@file@percent }
\@writefile{lof}{\addvspace {10\p@ }}
\@writefile{lot}{\addvspace {10\p@ }}
\@writefile{toc}{\contentsline {section}{\numberline {2.1}Class List}{3}{section.2.1}\protected@file@percent }
\@writefile{toc}{\contentsline {chapter}{\numberline {3}File Index}{5}{chapter.3}\protected@file@percent }
\@writefile{lof}{\addvspace {10\p@ }}
\@writefile{lot}{\addvspace {10\p@ }}
\@writefile{toc}{\contentsline {section}{\numberline {3.1}File List}{5}{section.3.1}\protected@file@percent }
\@writefile{toc}{\contentsline {chapter}{\numberline {4}Class Documentation}{7}{chapter.4}\protected@file@percent }
\@writefile{lof}{\addvspace {10\p@ }}
\@writefile{lot}{\addvspace {10\p@ }}
\@writefile{toc}{\contentsline {section}{\numberline {4.1}Bullet Class Reference}{7}{section.4.1}\protected@file@percent }
\newlabel{class_bullet}{{4.1}{7}{Bullet Class Reference}{section.4.1}{}}
\gdef \LT@i {\LT@entry 
    {3}{55.81013pt}\LT@entry 
    {3}{87.5662pt}}
\@writefile{toc}{\contentsline {subsection}{\numberline {4.1.1}Constructor \& Destructor Documentation}{8}{subsection.4.1.1}\protected@file@percent }
\newlabel{class_bullet_ad5be73f73ecd24300449d16274f944de}{{4.1.1}{8}{Constructor \& Destructor Documentation}{subsection.4.1.1}{}}
\@writefile{toc}{\contentsline {subsubsection}{\numberline {4.1.1.1}Bullet()}{8}{subsubsection.4.1.1.1}\protected@file@percent }
\@writefile{toc}{\contentsline {subsection}{\numberline {4.1.2}Member Function Documentation}{8}{subsection.4.1.2}\protected@file@percent }
\newlabel{class_bullet_a8a79488a93530394c9f1b59b4eefd7a5}{{4.1.2}{8}{Member Function Documentation}{subsection.4.1.2}{}}
\@writefile{toc}{\contentsline {subsubsection}{\numberline {4.1.2.1}getDirection()}{8}{subsubsection.4.1.2.1}\protected@file@percent }
\newlabel{class_bullet_a8b60984698a4e947730568db6734bb52}{{4.1.2.1}{8}{\texorpdfstring {getDirection()}{getDirection()}}{subsubsection.4.1.2.1}{}}
\@writefile{toc}{\contentsline {subsubsection}{\numberline {4.1.2.2}getOrigin()}{9}{subsubsection.4.1.2.2}\protected@file@percent }
\@writefile{toc}{\contentsline {section}{\numberline {4.2}Bunker Class Reference}{9}{section.4.2}\protected@file@percent }
\newlabel{class_bunker}{{4.2}{9}{Bunker Class Reference}{section.4.2}{}}
\gdef \LT@ii {\LT@entry 
    {3}{48.44801pt}\LT@entry 
    {3}{86.43231pt}}
\gdef \LT@iii {\LT@entry 
    {3}{42.81429pt}\LT@entry 
    {3}{115.17781pt}}
\@writefile{toc}{\contentsline {subsection}{\numberline {4.2.1}Constructor \& Destructor Documentation}{10}{subsection.4.2.1}\protected@file@percent }
\newlabel{class_bunker_a9907009e692186c66dd4554b513281bf}{{4.2.1}{10}{Constructor \& Destructor Documentation}{subsection.4.2.1}{}}
\@writefile{toc}{\contentsline {subsubsection}{\numberline {4.2.1.1}Bunker()}{10}{subsubsection.4.2.1.1}\protected@file@percent }
\@writefile{toc}{\contentsline {subsection}{\numberline {4.2.2}Member Function Documentation}{10}{subsection.4.2.2}\protected@file@percent }
\newlabel{class_bunker_ac69594a34f63af44902f121a503279f3}{{4.2.2}{10}{Member Function Documentation}{subsection.4.2.2}{}}
\@writefile{toc}{\contentsline {subsubsection}{\numberline {4.2.2.1}hit()}{10}{subsubsection.4.2.2.1}\protected@file@percent }
\gdef \LT@iv {\LT@entry 
    {3}{36.53268pt}\LT@entry 
    {3}{49.18222pt}}
\@writefile{toc}{\contentsline {section}{\numberline {4.3}Display Class Reference}{11}{section.4.3}\protected@file@percent }
\newlabel{class_display}{{4.3}{11}{Display Class Reference}{section.4.3}{}}
\newlabel{class_display_ae972fffea6f7ca1d627ef48c3d841bb3}{{4.3}{11}{Public Member Functions}{section*.8}{}}
\newlabel{class_display_ac2607a6bb236c55547a4223d40d85d1f}{{4.3}{11}{Public Member Functions}{section*.8}{}}
\newlabel{class_display_a4fe6059ab67f9a11469ea53f4a5ddb0d}{{4.3}{11}{Public Member Functions}{section*.8}{}}
\@writefile{toc}{\contentsline {subsection}{\numberline {4.3.1}Member Function Documentation}{11}{subsection.4.3.1}\protected@file@percent }
\newlabel{class_display_a9e1d1e8f23ef01303735b957bfbf6b93}{{4.3.1}{11}{Member Function Documentation}{subsection.4.3.1}{}}
\@writefile{toc}{\contentsline {subsubsection}{\numberline {4.3.1.1}setFrameBuffer()}{11}{subsubsection.4.3.1.1}\protected@file@percent }
\@writefile{toc}{\contentsline {section}{\numberline {4.4}Enemy Class Reference}{12}{section.4.4}\protected@file@percent }
\newlabel{class_enemy}{{4.4}{12}{Enemy Class Reference}{section.4.4}{}}
\newlabel{class_enemy_a06790e1833e4720d79af201d0e1b3a66}{{4.4}{12}{Public Member Functions}{section*.11}{}}
\gdef \LT@v {\LT@entry 
    {3}{77.31964pt}\LT@entry 
    {3}{155.92029pt}}
\@writefile{toc}{\contentsline {subsection}{\numberline {4.4.1}Constructor \& Destructor Documentation}{13}{subsection.4.4.1}\protected@file@percent }
\newlabel{class_enemy_af1054a5f61b2926d97a9319235e0eefa}{{4.4.1}{13}{Constructor \& Destructor Documentation}{subsection.4.4.1}{}}
\@writefile{toc}{\contentsline {subsubsection}{\numberline {4.4.1.1}Enemy()}{13}{subsubsection.4.4.1.1}\protected@file@percent }
\@writefile{toc}{\contentsline {subsection}{\numberline {4.4.2}Member Function Documentation}{13}{subsection.4.4.2}\protected@file@percent }
\newlabel{class_enemy_ad9a934daceeedc56c47f2c1300009764}{{4.4.2}{13}{Member Function Documentation}{subsection.4.4.2}{}}
\@writefile{toc}{\contentsline {subsubsection}{\numberline {4.4.2.1}exploaded()}{13}{subsubsection.4.4.2.1}\protected@file@percent }
\newlabel{class_enemy_ab0bb1b06eaf74dce63e7c8bce49936b7}{{4.4.2.1}{14}{\texorpdfstring {exploaded()}{exploaded()}}{subsubsection.4.4.2.1}{}}
\@writefile{toc}{\contentsline {subsubsection}{\numberline {4.4.2.2}getColumn()}{14}{subsubsection.4.4.2.2}\protected@file@percent }
\newlabel{class_enemy_a12a15efc6ee2103d2ca9b1c40e08fb02}{{4.4.2.2}{14}{\texorpdfstring {getColumn()}{getColumn()}}{subsubsection.4.4.2.2}{}}
\@writefile{toc}{\contentsline {subsubsection}{\numberline {4.4.2.3}getExplosionSprite()}{14}{subsubsection.4.4.2.3}\protected@file@percent }
\newlabel{class_enemy_af5f44be479bfe6a3af538385271b9863}{{4.4.2.3}{14}{\texorpdfstring {getExplosionSprite()}{getExplosionSprite()}}{subsubsection.4.4.2.3}{}}
\@writefile{toc}{\contentsline {subsubsection}{\numberline {4.4.2.4}getMovingSprite()}{14}{subsubsection.4.4.2.4}\protected@file@percent }
\newlabel{class_enemy_aec01ac9245245871d619b63820982b23}{{4.4.2.4}{14}{\texorpdfstring {getMovingSprite()}{getMovingSprite()}}{figure.caption.12}{}}
\gdef \LT@vi {\LT@entry 
    {3}{30.61978pt}\LT@entry 
    {3}{63.28508pt}}
\@writefile{toc}{\contentsline {subsubsection}{\numberline {4.4.2.5}getScoreGain()}{15}{subsubsection.4.4.2.5}\protected@file@percent }
\newlabel{class_enemy_ae73e36b5a03fe75afc557eea939205c4}{{4.4.2.5}{15}{\texorpdfstring {getScoreGain()}{getScoreGain()}}{subsubsection.4.4.2.5}{}}
\@writefile{toc}{\contentsline {subsubsection}{\numberline {4.4.2.6}getState()}{15}{subsubsection.4.4.2.6}\protected@file@percent }
\newlabel{class_enemy_a7eb75b72b680ab7691c86fd7224618d0}{{4.4.2.6}{15}{\texorpdfstring {getState()}{getState()}}{subsubsection.4.4.2.6}{}}
\@writefile{toc}{\contentsline {subsubsection}{\numberline {4.4.2.7}setState()}{15}{subsubsection.4.4.2.7}\protected@file@percent }
\@writefile{toc}{\contentsline {section}{\numberline {4.5}Entity Class Reference}{16}{section.4.5}\protected@file@percent }
\newlabel{class_entity}{{4.5}{16}{Entity Class Reference}{section.4.5}{}}
\@writefile{toc}{\contentsline {subsection}{\numberline {4.5.1}Constructor \& Destructor Documentation}{16}{subsection.4.5.1}\protected@file@percent }
\newlabel{class_entity_ae7160e3607e4f7514339d0b729d7d723}{{4.5.1}{16}{Constructor \& Destructor Documentation}{subsection.4.5.1}{}}
\@writefile{toc}{\contentsline {subsubsection}{\numberline {4.5.1.1}Entity()}{16}{subsubsection.4.5.1.1}\protected@file@percent }
\gdef \LT@vii {\LT@entry 
    {3}{48.44801pt}\LT@entry 
    {3}{84.43436pt}}
\@writefile{toc}{\contentsline {subsection}{\numberline {4.5.2}Member Function Documentation}{17}{subsection.4.5.2}\protected@file@percent }
\newlabel{class_entity_ab9e196cdb891af650c11a37b0a6047d4}{{4.5.2}{17}{Member Function Documentation}{subsection.4.5.2}{}}
\@writefile{toc}{\contentsline {subsubsection}{\numberline {4.5.2.1}getSprite()\hspace  {0.1cm}{\footnotesize  \ttfamily  [1/2]}}{17}{subsubsection.4.5.2.1}\protected@file@percent }
\newlabel{class_entity_ae47b34d3bc35071c1357a6dbec6a3bf1}{{4.5.2.1}{17}{\texorpdfstring {getSprite()}{getSprite()}\hspace {0.1cm}{\footnotesize \ttfamily [1/2]}}{subsubsection.4.5.2.1}{}}
\@writefile{toc}{\contentsline {subsubsection}{\numberline {4.5.2.2}getSprite()\hspace  {0.1cm}{\footnotesize  \ttfamily  [2/2]}}{17}{subsubsection.4.5.2.2}\protected@file@percent }
\newlabel{class_entity_a8bad399d8b9c6bf23ecbb8f0b4fe6a64}{{4.5.2.2}{17}{\texorpdfstring {getSprite()}{getSprite()}\hspace {0.1cm}{\footnotesize \ttfamily [2/2]}}{subsubsection.4.5.2.2}{}}
\@writefile{toc}{\contentsline {subsubsection}{\numberline {4.5.2.3}getX()\hspace  {0.1cm}{\footnotesize  \ttfamily  [1/2]}}{17}{subsubsection.4.5.2.3}\protected@file@percent }
\newlabel{class_entity_a5a851d21579432e736fb7c479e86fb6b}{{4.5.2.3}{17}{\texorpdfstring {getX()}{getX()}\hspace {0.1cm}{\footnotesize \ttfamily [1/2]}}{subsubsection.4.5.2.3}{}}
\gdef \LT@viii {\LT@entry 
    {3}{36.62267pt}\LT@entry 
    {3}{83.24664pt}}
\@writefile{toc}{\contentsline {subsubsection}{\numberline {4.5.2.4}getX()\hspace  {0.1cm}{\footnotesize  \ttfamily  [2/2]}}{18}{subsubsection.4.5.2.4}\protected@file@percent }
\newlabel{class_entity_a4f2a264033195f9004a494069c5865f0}{{4.5.2.4}{18}{\texorpdfstring {getX()}{getX()}\hspace {0.1cm}{\footnotesize \ttfamily [2/2]}}{subsubsection.4.5.2.4}{}}
\@writefile{toc}{\contentsline {subsubsection}{\numberline {4.5.2.5}getY()\hspace  {0.1cm}{\footnotesize  \ttfamily  [1/2]}}{18}{subsubsection.4.5.2.5}\protected@file@percent }
\newlabel{class_entity_ae48a05fef6420bb320d17aed7ea98cb3}{{4.5.2.5}{18}{\texorpdfstring {getY()}{getY()}\hspace {0.1cm}{\footnotesize \ttfamily [1/2]}}{subsubsection.4.5.2.5}{}}
\@writefile{toc}{\contentsline {subsubsection}{\numberline {4.5.2.6}getY()\hspace  {0.1cm}{\footnotesize  \ttfamily  [2/2]}}{18}{subsubsection.4.5.2.6}\protected@file@percent }
\newlabel{class_entity_a2c1cb6db51c0c3b4ea08bf7fe52a339d}{{4.5.2.6}{18}{\texorpdfstring {getY()}{getY()}\hspace {0.1cm}{\footnotesize \ttfamily [2/2]}}{subsubsection.4.5.2.6}{}}
\@writefile{toc}{\contentsline {subsubsection}{\numberline {4.5.2.7}setX()}{18}{subsubsection.4.5.2.7}\protected@file@percent }
\newlabel{class_entity_a8d997951efaac848a2c7ecdd65d755cf}{{4.5.2.7}{18}{\texorpdfstring {setX()}{setX()}}{table.4.8}{}}
\gdef \LT@ix {\LT@entry 
    {3}{36.62267pt}\LT@entry 
    {3}{83.24664pt}}
\@writefile{toc}{\contentsline {subsubsection}{\numberline {4.5.2.8}setY()}{19}{subsubsection.4.5.2.8}\protected@file@percent }
\@writefile{toc}{\contentsline {section}{\numberline {4.6}font\discretionary {\mbox  {\scriptsize  $\hookleftarrow  $}}{}{}\_\discretionary {\mbox  {\scriptsize  $\hookleftarrow  $}}{}{}descriptor\discretionary {\mbox  {\scriptsize  $\hookleftarrow  $}}{}{}\_\discretionary {\mbox  {\scriptsize  $\hookleftarrow  $}}{}{}t Struct Reference}{19}{section.4.6}\protected@file@percent }
\newlabel{structfont__descriptor__t}{{4.6}{19}{font\+\_\+descriptor\+\_\+t Struct Reference}{section.4.6}{}}
\newlabel{structfont__descriptor__t_a7a5f7569c87f8995fe45b207897a0327}{{4.6}{19}{Public Attributes}{section*.15}{}}
\newlabel{structfont__descriptor__t_a8e21a73982523c96f1ca5f39487956a7}{{4.6}{19}{Public Attributes}{section*.15}{}}
\newlabel{structfont__descriptor__t_abf7d9548e4312aa8ab0b6c868c5c4ae3}{{4.6}{19}{Public Attributes}{section*.15}{}}
\newlabel{structfont__descriptor__t_af23bcc2d3e1633f8153cb92df31de704}{{4.6}{19}{Public Attributes}{section*.15}{}}
\newlabel{structfont__descriptor__t_a9d7d7a8a663625f6fb6120cb9dc0d970}{{4.6}{19}{Public Attributes}{section*.15}{}}
\newlabel{structfont__descriptor__t_abe0724754ffd1eefe3933c49c534eb8a}{{4.6}{19}{Public Attributes}{section*.15}{}}
\newlabel{structfont__descriptor__t_a8d9fbb0fd97c708b08e7f6fe5c866fab}{{4.6}{19}{Public Attributes}{section*.15}{}}
\newlabel{structfont__descriptor__t_aaf4c05aa205048a217620ca26f8c5abb}{{4.6}{19}{Public Attributes}{section*.15}{}}
\newlabel{structfont__descriptor__t_a15c94573c8690a0ec940e3da4c80b0b9}{{4.6}{19}{Public Attributes}{section*.15}{}}
\newlabel{structfont__descriptor__t_a5bfad8f5e932dee64c856bce858f88d0}{{4.6}{19}{Public Attributes}{section*.15}{}}
\newlabel{structfont__descriptor__t_a335c226d88f77b41d82ed53d6d28c022}{{4.6}{19}{Public Attributes}{section*.15}{}}
\@writefile{toc}{\contentsline {section}{\numberline {4.7}Knob Class Reference}{19}{section.4.7}\protected@file@percent }
\newlabel{class_knob}{{4.7}{19}{Knob Class Reference}{section.4.7}{}}
\gdef \LT@x {\LT@entry 
    {3}{73.32387pt}\LT@entry 
    {3}{181.96538pt}}
\@writefile{toc}{\contentsline {subsection}{\numberline {4.7.1}Constructor \& Destructor Documentation}{20}{subsection.4.7.1}\protected@file@percent }
\newlabel{class_knob_a9e16abad32a7e34edc68d54fab88844c}{{4.7.1}{20}{Constructor \& Destructor Documentation}{subsection.4.7.1}{}}
\@writefile{toc}{\contentsline {subsubsection}{\numberline {4.7.1.1}Knob()}{20}{subsubsection.4.7.1.1}\protected@file@percent }
\@writefile{toc}{\contentsline {subsection}{\numberline {4.7.2}Member Function Documentation}{20}{subsection.4.7.2}\protected@file@percent }
\newlabel{class_knob_a949fce2cdf9bc784c5eeeeeeed0da7a0}{{4.7.2}{20}{Member Function Documentation}{subsection.4.7.2}{}}
\@writefile{toc}{\contentsline {subsubsection}{\numberline {4.7.2.1}button()}{20}{subsubsection.4.7.2.1}\protected@file@percent }
\newlabel{class_knob_a7e78c8d86e4978cfe4d7b94dcc3c6eff}{{4.7.2.1}{20}{\texorpdfstring {button()}{button()}}{figure.caption.17}{}}
\@writefile{toc}{\contentsline {subsubsection}{\numberline {4.7.2.2}ignoreButtonMS()}{20}{subsubsection.4.7.2.2}\protected@file@percent }
\gdef \LT@xi {\LT@entry 
    {3}{33.80557pt}\LT@entry 
    {3}{81.41951pt}}
\newlabel{class_knob_a67a6b2c494dafb9b6cf9b2a6d5e8b1ef}{{4.7.2.2}{21}{\texorpdfstring {ignoreButtonMS()}{ignoreButtonMS()}}{figure.caption.18}{}}
\@writefile{toc}{\contentsline {subsubsection}{\numberline {4.7.2.3}increment()}{21}{subsubsection.4.7.2.3}\protected@file@percent }
\@writefile{toc}{\contentsline {section}{\numberline {4.8}L\discretionary {\mbox  {\scriptsize  $\hookleftarrow  $}}{}{}E\discretionary {\mbox  {\scriptsize  $\hookleftarrow  $}}{}{}D\discretionary {\mbox  {\scriptsize  $\hookleftarrow  $}}{}{}Line Class Reference}{21}{section.4.8}\protected@file@percent }
\newlabel{class_l_e_d_line}{{4.8}{21}{L\+E\+D\+Line Class Reference}{section.4.8}{}}
\newlabel{class_l_e_d_line_a585f7b05a3dee4a74fd289020e5e7a24}{{4.8}{21}{Public Member Functions}{section*.19}{}}
\@writefile{toc}{\contentsline {subsection}{\numberline {4.8.1}Constructor \& Destructor Documentation}{21}{subsection.4.8.1}\protected@file@percent }
\newlabel{class_l_e_d_line_a239a51ff5c8a616e712a009bcde9b00a}{{4.8.1}{21}{Constructor \& Destructor Documentation}{subsection.4.8.1}{}}
\@writefile{toc}{\contentsline {subsubsection}{\numberline {4.8.1.1}LEDLine()}{21}{subsubsection.4.8.1.1}\protected@file@percent }
\gdef \LT@xii {\LT@entry 
    {3}{46.00017pt}\LT@entry 
    {3}{124.62738pt}}
\gdef \LT@xiii {\LT@entry 
    {3}{56.67407pt}\LT@entry 
    {3}{118.53474pt}}
\@writefile{toc}{\contentsline {section}{\numberline {4.9}Menu Class Reference}{22}{section.4.9}\protected@file@percent }
\newlabel{class_menu}{{4.9}{22}{Menu Class Reference}{section.4.9}{}}
\@writefile{toc}{\contentsline {subsection}{\numberline {4.9.1}Constructor \& Destructor Documentation}{22}{subsection.4.9.1}\protected@file@percent }
\newlabel{class_menu_a6197629235a270e6201b109dd7b46419}{{4.9.1}{22}{Constructor \& Destructor Documentation}{subsection.4.9.1}{}}
\@writefile{toc}{\contentsline {subsubsection}{\numberline {4.9.1.1}Menu()}{22}{subsubsection.4.9.1.1}\protected@file@percent }
\gdef \LT@xiv {\LT@entry 
    {3}{52.8132pt}\LT@entry 
    {3}{206.36359pt}}
\gdef \LT@xv {\LT@entry 
    {3}{64.78314pt}\LT@entry 
    {3}{139.30644pt}}
\@writefile{toc}{\contentsline {subsection}{\numberline {4.9.2}Member Function Documentation}{23}{subsection.4.9.2}\protected@file@percent }
\newlabel{class_menu_ab29682834db9f2d0ef33ee4d9f535968}{{4.9.2}{23}{Member Function Documentation}{subsection.4.9.2}{}}
\@writefile{toc}{\contentsline {subsubsection}{\numberline {4.9.2.1}setOptions()}{23}{subsubsection.4.9.2.1}\protected@file@percent }
\newlabel{class_menu_a45079b1ad0be01cc9d7f99b5624e99bb}{{4.9.2.1}{23}{\texorpdfstring {setOptions()}{setOptions()}}{figure.caption.22}{}}
\@writefile{toc}{\contentsline {subsubsection}{\numberline {4.9.2.2}setOptionsKeyboard()}{23}{subsubsection.4.9.2.2}\protected@file@percent }
\@writefile{toc}{\contentsline {section}{\numberline {4.10}Pixel Class Reference}{24}{section.4.10}\protected@file@percent }
\newlabel{class_pixel}{{4.10}{24}{Pixel Class Reference}{section.4.10}{}}
\newlabel{class_pixel_a27ad99a2f705e635c42d242d530d4756}{{4.10}{24}{Public Member Functions}{section*.24}{}}
\@writefile{toc}{\contentsline {subsection}{\numberline {4.10.1}Constructor \& Destructor Documentation}{24}{subsection.4.10.1}\protected@file@percent }
\newlabel{class_pixel_aef5755fd97ee4e832afcd3c0b75553cc}{{4.10.1}{24}{Constructor \& Destructor Documentation}{subsection.4.10.1}{}}
\@writefile{toc}{\contentsline {subsubsection}{\numberline {4.10.1.1}Pixel()}{24}{subsubsection.4.10.1.1}\protected@file@percent }
\gdef \LT@xvi {\LT@entry 
    {3}{37.8105pt}\LT@entry 
    {3}{141.36725pt}}
\@writefile{toc}{\contentsline {subsection}{\numberline {4.10.2}Member Function Documentation}{25}{subsection.4.10.2}\protected@file@percent }
\newlabel{class_pixel_a241756929329794e4acd532c2586ef45}{{4.10.2}{25}{Member Function Documentation}{subsection.4.10.2}{}}
\@writefile{toc}{\contentsline {subsubsection}{\numberline {4.10.2.1}getBlue()}{25}{subsubsection.4.10.2.1}\protected@file@percent }
\newlabel{class_pixel_ac39d6b16ad31e5c548e488707d9cfac1}{{4.10.2.1}{25}{\texorpdfstring {getBlue()}{getBlue()}}{subsubsection.4.10.2.1}{}}
\@writefile{toc}{\contentsline {subsubsection}{\numberline {4.10.2.2}getGreen()}{25}{subsubsection.4.10.2.2}\protected@file@percent }
\newlabel{class_pixel_a6b9956e0cf84222743cf7e8578139ad4}{{4.10.2.2}{25}{\texorpdfstring {getGreen()}{getGreen()}}{subsubsection.4.10.2.2}{}}
\gdef \LT@xvii {\LT@entry 
    {3}{30.80864pt}\LT@entry 
    {3}{134.36539pt}}
\gdef \LT@xviii {\LT@entry 
    {3}{37.8105pt}\LT@entry 
    {3}{141.36725pt}}
\@writefile{toc}{\contentsline {subsubsection}{\numberline {4.10.2.3}getRed()}{26}{subsubsection.4.10.2.3}\protected@file@percent }
\newlabel{class_pixel_a53e7ed4d5f3e3c253f9f3c731ec4f187}{{4.10.2.3}{26}{\texorpdfstring {getRed()}{getRed()}}{subsubsection.4.10.2.3}{}}
\@writefile{toc}{\contentsline {subsubsection}{\numberline {4.10.2.4}setBlue()}{26}{subsubsection.4.10.2.4}\protected@file@percent }
\newlabel{class_pixel_a024d7e7f7330c038e44e6c566494a78e}{{4.10.2.4}{26}{\texorpdfstring {setBlue()}{setBlue()}}{table.4.17}{}}
\@writefile{toc}{\contentsline {subsubsection}{\numberline {4.10.2.5}setGreen()}{26}{subsubsection.4.10.2.5}\protected@file@percent }
\newlabel{class_pixel_a0db237745d2ade1258a4c6bf20b6253d}{{4.10.2.5}{26}{\texorpdfstring {setGreen()}{setGreen()}}{table.4.18}{}}
\@writefile{toc}{\contentsline {subsubsection}{\numberline {4.10.2.6}setPixel()}{26}{subsubsection.4.10.2.6}\protected@file@percent }
\gdef \LT@xix {\LT@entry 
    {3}{37.8105pt}\LT@entry 
    {3}{141.36725pt}}
\gdef \LT@xx {\LT@entry 
    {3}{29.30573pt}\LT@entry 
    {3}{132.86247pt}}
\newlabel{class_pixel_a48114d4f68ef7d7146660925d054125d}{{4.10.2.6}{27}{\texorpdfstring {setPixel()}{setPixel()}}{figure.caption.26}{}}
\@writefile{toc}{\contentsline {subsubsection}{\numberline {4.10.2.7}setRed()}{27}{subsubsection.4.10.2.7}\protected@file@percent }
\@writefile{toc}{\contentsline {section}{\numberline {4.11}Player Class Reference}{28}{section.4.11}\protected@file@percent }
\newlabel{class_player}{{4.11}{28}{Player Class Reference}{section.4.11}{}}
\gdef \LT@xxi {\LT@entry 
    {3}{82.96252pt}\LT@entry 
    {3}{115.98781pt}}
\@writefile{toc}{\contentsline {subsection}{\numberline {4.11.1}Constructor \& Destructor Documentation}{29}{subsection.4.11.1}\protected@file@percent }
\newlabel{class_player_a6bf98f421a487bafc271f86a67c8948b}{{4.11.1}{29}{Constructor \& Destructor Documentation}{subsection.4.11.1}{}}
\@writefile{toc}{\contentsline {subsubsection}{\numberline {4.11.1.1}Player()}{29}{subsubsection.4.11.1.1}\protected@file@percent }
\@writefile{toc}{\contentsline {subsection}{\numberline {4.11.2}Member Function Documentation}{29}{subsection.4.11.2}\protected@file@percent }
\newlabel{class_player_af528d6f9365354c0a1968b16cbc398eb}{{4.11.2}{29}{Member Function Documentation}{subsection.4.11.2}{}}
\@writefile{toc}{\contentsline {subsubsection}{\numberline {4.11.2.1}getExplosionSprite()}{29}{subsubsection.4.11.2.1}\protected@file@percent }
\newlabel{class_player_abcb15d249bed9a4ab0ab86b52b0d747a}{{4.11.2.1}{29}{\texorpdfstring {getExplosionSprite()}{getExplosionSprite()}}{subsubsection.4.11.2.1}{}}
\gdef \LT@xxii {\LT@entry 
    {3}{42.81429pt}\LT@entry 
    {3}{115.17781pt}}
\@writefile{toc}{\contentsline {subsubsection}{\numberline {4.11.2.2}getHealth()}{30}{subsubsection.4.11.2.2}\protected@file@percent }
\newlabel{class_player_a0a4b4a42bca1b1d62be928ce234d8df5}{{4.11.2.2}{30}{\texorpdfstring {getHealth()}{getHealth()}}{subsubsection.4.11.2.2}{}}
\@writefile{toc}{\contentsline {subsubsection}{\numberline {4.11.2.3}getScore()}{30}{subsubsection.4.11.2.3}\protected@file@percent }
\newlabel{class_player_ad532211e67a540b710f127cca747d441}{{4.11.2.3}{30}{\texorpdfstring {getScore()}{getScore()}}{subsubsection.4.11.2.3}{}}
\@writefile{toc}{\contentsline {subsubsection}{\numberline {4.11.2.4}hit()}{30}{subsubsection.4.11.2.4}\protected@file@percent }
\gdef \LT@xxiii {\LT@entry 
    {3}{52.8132pt}\LT@entry 
    {3}{76.19974pt}}
\newlabel{class_player_a7b091e3f2012802450d9872f44b29b8a}{{4.11.2.4}{31}{\texorpdfstring {hit()}{hit()}}{figure.caption.30}{}}
\@writefile{toc}{\contentsline {subsubsection}{\numberline {4.11.2.5}incrementScore()}{31}{subsubsection.4.11.2.5}\protected@file@percent }
\newlabel{class_player_a1f81977b3897c45394f2c6b76100bc0d}{{4.11.2.5}{31}{\texorpdfstring {incrementScore()}{incrementScore()}}{table.4.23}{}}
\@writefile{toc}{\contentsline {subsubsection}{\numberline {4.11.2.6}isHit()}{31}{subsubsection.4.11.2.6}\protected@file@percent }
\newlabel{class_player_a58e60358de2440b181b5ca5a7f0c455b}{{4.11.2.6}{31}{\texorpdfstring {isHit()}{isHit()}}{subsubsection.4.11.2.6}{}}
\gdef \LT@xxiv {\LT@entry 
    {3}{46.31528pt}\LT@entry 
    {3}{110.07524pt}}
\gdef \LT@xxv {\LT@entry 
    {3}{43.81339pt}\LT@entry 
    {3}{107.57335pt}}
\@writefile{toc}{\contentsline {subsubsection}{\numberline {4.11.2.7}setHealth()}{32}{subsubsection.4.11.2.7}\protected@file@percent }
\newlabel{class_player_a47320ef574288a2a1fe631c86026f463}{{4.11.2.7}{32}{\texorpdfstring {setHealth()}{setHealth()}}{table.4.24}{}}
\@writefile{toc}{\contentsline {subsubsection}{\numberline {4.11.2.8}setScore()}{32}{subsubsection.4.11.2.8}\protected@file@percent }
\@writefile{toc}{\contentsline {section}{\numberline {4.12}R\discretionary {\mbox  {\scriptsize  $\hookleftarrow  $}}{}{}G\discretionary {\mbox  {\scriptsize  $\hookleftarrow  $}}{}{}B\discretionary {\mbox  {\scriptsize  $\hookleftarrow  $}}{}{}L\discretionary {\mbox  {\scriptsize  $\hookleftarrow  $}}{}{}ED Class Reference}{32}{section.4.12}\protected@file@percent }
\newlabel{class_r_g_b_l_e_d}{{4.12}{32}{R\+G\+B\+L\+ED Class Reference}{section.4.12}{}}
\@writefile{toc}{\contentsline {subsection}{\numberline {4.12.1}Constructor \& Destructor Documentation}{32}{subsection.4.12.1}\protected@file@percent }
\newlabel{class_r_g_b_l_e_d_abef4aecffcc47ef00c8876397f417b7d}{{4.12.1}{32}{Constructor \& Destructor Documentation}{subsection.4.12.1}{}}
\gdef \LT@xxvi {\LT@entry 
    {3}{54.31624pt}\LT@entry 
    {3}{217.48738pt}}
\gdef \LT@xxvii {\LT@entry 
    {3}{38.49437pt}\LT@entry 
    {3}{114.9349pt}}
\@writefile{toc}{\contentsline {subsubsection}{\numberline {4.12.1.1}RGBLED()}{33}{subsubsection.4.12.1.1}\protected@file@percent }
\@writefile{toc}{\contentsline {subsection}{\numberline {4.12.2}Member Function Documentation}{33}{subsection.4.12.2}\protected@file@percent }
\newlabel{class_r_g_b_l_e_d_a831c022229c29653927c7433f79fad68}{{4.12.2}{33}{Member Function Documentation}{subsection.4.12.2}{}}
\@writefile{toc}{\contentsline {subsubsection}{\numberline {4.12.2.1}blink()}{33}{subsubsection.4.12.2.1}\protected@file@percent }
\gdef \LT@xxviii {\LT@entry 
    {3}{45.3163pt}\LT@entry 
    {3}{143.4731pt}}
\newlabel{class_r_g_b_l_e_d_a5843172b9b72f04d1a1e4156e7c63c54}{{4.12.2.1}{34}{\texorpdfstring {blink()}{blink()}}{figure.caption.33}{}}
\@writefile{toc}{\contentsline {subsubsection}{\numberline {4.12.2.2}setColor()}{34}{subsubsection.4.12.2.2}\protected@file@percent }
\@writefile{toc}{\contentsline {section}{\numberline {4.13}Sprite Class Reference}{34}{section.4.13}\protected@file@percent }
\newlabel{class_sprite}{{4.13}{34}{Sprite Class Reference}{section.4.13}{}}
\gdef \LT@xxix {\LT@entry 
    {3}{58.31215pt}\LT@entry 
    {3}{136.8226pt}}
\gdef \LT@xxx {\LT@entry 
    {3}{58.31215pt}\LT@entry 
    {3}{136.8226pt}}
\@writefile{toc}{\contentsline {subsection}{\numberline {4.13.1}Constructor \& Destructor Documentation}{35}{subsection.4.13.1}\protected@file@percent }
\newlabel{class_sprite_a8b69ed370b228394b44e2367826cfdb0}{{4.13.1}{35}{Constructor \& Destructor Documentation}{subsection.4.13.1}{}}
\@writefile{toc}{\contentsline {subsubsection}{\numberline {4.13.1.1}Sprite()\hspace  {0.1cm}{\footnotesize  \ttfamily  [1/3]}}{35}{subsubsection.4.13.1.1}\protected@file@percent }
\newlabel{class_sprite_a1d826fecee443ebaf3dbf4f90cf42c17}{{4.13.1.1}{35}{\texorpdfstring {Sprite()}{Sprite()}\hspace {0.1cm}{\footnotesize \ttfamily [1/3]}}{table.4.29}{}}
\@writefile{toc}{\contentsline {subsubsection}{\numberline {4.13.1.2}Sprite()\hspace  {0.1cm}{\footnotesize  \ttfamily  [2/3]}}{35}{subsubsection.4.13.1.2}\protected@file@percent }
\newlabel{class_sprite_a743104668233193836b9f5b9a02c2dac}{{4.13.1.2}{35}{\texorpdfstring {Sprite()}{Sprite()}\hspace {0.1cm}{\footnotesize \ttfamily [2/3]}}{table.4.30}{}}
\gdef \LT@xxxi {\LT@entry 
    {3}{58.31215pt}\LT@entry 
    {3}{136.8226pt}}
\gdef \LT@xxxii {\LT@entry 
    {3}{89.82059pt}\LT@entry 
    {3}{122.96257pt}}
\@writefile{toc}{\contentsline {subsubsection}{\numberline {4.13.1.3}Sprite()\hspace  {0.1cm}{\footnotesize  \ttfamily  [3/3]}}{36}{subsubsection.4.13.1.3}\protected@file@percent }
\@writefile{toc}{\contentsline {subsection}{\numberline {4.13.2}Member Function Documentation}{36}{subsection.4.13.2}\protected@file@percent }
\newlabel{class_sprite_ab3884a7dcd47393db5e327029d0daeb9}{{4.13.2}{36}{Member Function Documentation}{subsection.4.13.2}{}}
\@writefile{toc}{\contentsline {subsubsection}{\numberline {4.13.2.1}damage()}{36}{subsubsection.4.13.2.1}\protected@file@percent }
\newlabel{class_sprite_a67b67082cfda90103d2d9eefea04cc4b}{{4.13.2.1}{36}{\texorpdfstring {damage()}{damage()}}{table.4.32}{}}
\@writefile{toc}{\contentsline {subsubsection}{\numberline {4.13.2.2}getHeight()\hspace  {0.1cm}{\footnotesize  \ttfamily  [1/2]}}{36}{subsubsection.4.13.2.2}\protected@file@percent }
\newlabel{class_sprite_ae4d387161151d1d9b2162f4339b8fc6c}{{4.13.2.2}{36}{\texorpdfstring {getHeight()}{getHeight()}\hspace {0.1cm}{\footnotesize \ttfamily [1/2]}}{subsubsection.4.13.2.2}{}}
\gdef \LT@xxxiii {\LT@entry 
    {3}{18.80287pt}\LT@entry 
    {3}{62.92496pt}}
\gdef \LT@xxxiv {\LT@entry 
    {3}{18.80287pt}\LT@entry 
    {3}{62.92496pt}}
\@writefile{toc}{\contentsline {subsubsection}{\numberline {4.13.2.3}getHeight()\hspace  {0.1cm}{\footnotesize  \ttfamily  [2/2]}}{37}{subsubsection.4.13.2.3}\protected@file@percent }
\newlabel{class_sprite_ad58f6d30c08ed3fcfc7dcd3ea3610de2}{{4.13.2.3}{37}{\texorpdfstring {getHeight()}{getHeight()}\hspace {0.1cm}{\footnotesize \ttfamily [2/2]}}{subsubsection.4.13.2.3}{}}
\@writefile{toc}{\contentsline {subsubsection}{\numberline {4.13.2.4}getPixel()\hspace  {0.1cm}{\footnotesize  \ttfamily  [1/2]}}{37}{subsubsection.4.13.2.4}\protected@file@percent }
\newlabel{class_sprite_a6ecde410574f20a43ed7aa63781ce760}{{4.13.2.4}{37}{\texorpdfstring {getPixel()}{getPixel()}\hspace {0.1cm}{\footnotesize \ttfamily [1/2]}}{table.4.33}{}}
\@writefile{toc}{\contentsline {subsubsection}{\numberline {4.13.2.5}getPixel()\hspace  {0.1cm}{\footnotesize  \ttfamily  [2/2]}}{37}{subsubsection.4.13.2.5}\protected@file@percent }
\newlabel{class_sprite_aba3d4752461ec679fbf5de7ec4c34f61}{{4.13.2.5}{38}{\texorpdfstring {getPixel()}{getPixel()}\hspace {0.1cm}{\footnotesize \ttfamily [2/2]}}{figure.caption.35}{}}
\@writefile{toc}{\contentsline {subsubsection}{\numberline {4.13.2.6}getWidth()\hspace  {0.1cm}{\footnotesize  \ttfamily  [1/2]}}{38}{subsubsection.4.13.2.6}\protected@file@percent }
\newlabel{class_sprite_a5d9a104a034ca44a1243beb16605684f}{{4.13.2.6}{38}{\texorpdfstring {getWidth()}{getWidth()}\hspace {0.1cm}{\footnotesize \ttfamily [1/2]}}{subsubsection.4.13.2.6}{}}
\@writefile{toc}{\contentsline {subsubsection}{\numberline {4.13.2.7}getWidth()\hspace  {0.1cm}{\footnotesize  \ttfamily  [2/2]}}{38}{subsubsection.4.13.2.7}\protected@file@percent }
\newlabel{class_sprite_abdca9729622d8864cb7b0a478768c9b8}{{4.13.2.7}{38}{\texorpdfstring {getWidth()}{getWidth()}\hspace {0.1cm}{\footnotesize \ttfamily [2/2]}}{subsubsection.4.13.2.7}{}}
\@writefile{toc}{\contentsline {subsubsection}{\numberline {4.13.2.8}setColor()}{38}{subsubsection.4.13.2.8}\protected@file@percent }
\gdef \LT@xxxv {\LT@entry 
    {3}{37.8105pt}\LT@entry 
    {3}{161.01392pt}}
\gdef \LT@xxxvi {\LT@entry 
    {3}{44.03848pt}\LT@entry 
    {3}{249.3019pt}}
\@writefile{toc}{\contentsline {section}{\numberline {4.14}Text Class Reference}{39}{section.4.14}\protected@file@percent }
\newlabel{class_text}{{4.14}{39}{Text Class Reference}{section.4.14}{}}
\@writefile{toc}{\contentsline {subsection}{\numberline {4.14.1}Constructor \& Destructor Documentation}{39}{subsection.4.14.1}\protected@file@percent }
\newlabel{class_text_a5790dfc3fa0ac2f78e4f58b3956b10d8}{{4.14.1}{39}{Constructor \& Destructor Documentation}{subsection.4.14.1}{}}
\@writefile{toc}{\contentsline {subsubsection}{\numberline {4.14.1.1}Text()}{39}{subsubsection.4.14.1.1}\protected@file@percent }
\@writefile{toc}{\contentsline {subsection}{\numberline {4.14.2}Member Function Documentation}{39}{subsection.4.14.2}\protected@file@percent }
\newlabel{class_text_a50c8f50d43f40ddf70bff6a70f9212b1}{{4.14.2}{39}{Member Function Documentation}{subsection.4.14.2}{}}
\gdef \LT@xxxvii {\LT@entry 
    {3}{45.3163pt}\LT@entry 
    {3}{230.15pt}}
\@writefile{toc}{\contentsline {subsubsection}{\numberline {4.14.2.1}drawLine()}{40}{subsubsection.4.14.2.1}\protected@file@percent }
\@writefile{toc}{\contentsline {chapter}{\numberline {5}File Documentation}{41}{chapter.5}\protected@file@percent }
\@writefile{lof}{\addvspace {10\p@ }}
\@writefile{lot}{\addvspace {10\p@ }}
\@writefile{toc}{\contentsline {section}{\numberline {5.1}semcode/include/\discretionary {\mbox  {\scriptsize  $\hookleftarrow  $}}{}{}Assets.h File Reference}{41}{section.5.1}\protected@file@percent }
\newlabel{_assets_8h}{{5.1}{41}{semcode/include/\+Assets.h File Reference}{section.5.1}{}}
\newlabel{_assets_8h_a8a012dff4887052830a7190553e7f1f1}{{5.1}{42}{Macros}{section*.39}{}}
\newlabel{_assets_8h_a4eaad81ee7ad42cb3857171bf8ed72cb}{{5.1}{42}{Macros}{section*.39}{}}
\newlabel{_assets_8h_a41b62798160316f9254d1bf40765881c}{{5.1}{42}{Macros}{section*.39}{}}
\newlabel{_assets_8h_a4752dc646d14679afe79d380409ff3f0}{{5.1}{42}{Macros}{section*.39}{}}
\newlabel{_assets_8h_a1de2e828ef7df955ccd90e743965e482}{{5.1}{42}{Macros}{section*.39}{}}
\newlabel{_assets_8h_a79bb630abd871e4d0ab6cfcdc3e98629}{{5.1}{42}{Macros}{section*.39}{}}
\newlabel{_assets_8h_abcf6e2b5fc6784dd8cc8ef0dceec866e}{{5.1}{42}{Macros}{section*.39}{}}
\newlabel{_assets_8h_a89e2ac9092225702ac543695d0771d38}{{5.1}{42}{Macros}{section*.39}{}}
\newlabel{_assets_8h_aff565dca17072c461149d48e7cbea725}{{5.1}{42}{Macros}{section*.39}{}}
\newlabel{_assets_8h_aaa9ab7efb5a7764e4d51dce3a3f3fe3e}{{5.1}{42}{Macros}{section*.39}{}}
\newlabel{_assets_8h_aee7ca4e024eac65e94fb760a8a719cc3}{{5.1}{42}{Macros}{section*.39}{}}
\newlabel{_assets_8h_a8c0ef4273845568431cf9dde49b2d449}{{5.1}{42}{Macros}{section*.39}{}}
\newlabel{_assets_8h_ad8f05afae7fe1a90737ea45b70733438}{{5.1}{42}{Macros}{section*.39}{}}
\newlabel{_assets_8h_a097b0832578b9387d980e72814b0e81d}{{5.1}{42}{Macros}{section*.39}{}}
\newlabel{_assets_8h_a675f2bb5a102d62638b1d4a104c45769}{{5.1}{42}{Macros}{section*.39}{}}
\newlabel{_assets_8h_a3f052df3d93c3a9a68f245b0dda5a727}{{5.1}{42}{Variables}{section*.40}{}}
\newlabel{_assets_8h_ae5a522ae63a2d289a160eb5c69fc9927}{{5.1}{42}{Variables}{section*.40}{}}
\newlabel{_assets_8h_ad13363d918d221742804e9a26e7df041}{{5.1}{42}{Variables}{section*.40}{}}
\newlabel{_assets_8h_a7e5624b5c567c819ea8fcc41873bf292}{{5.1}{42}{Variables}{section*.40}{}}
\newlabel{_assets_8h_adbaf819ad88b3a70e1c7f57ca6c315cf}{{5.1}{42}{Variables}{section*.40}{}}
\newlabel{_assets_8h_ad91b0e26b49fbe388f300bdf8f740930}{{5.1}{42}{Variables}{section*.40}{}}
\newlabel{_assets_8h_a112793433766e1e73eae6671c7a996e3}{{5.1}{42}{Variables}{section*.40}{}}
\newlabel{_assets_8h_aa8109d430212788aafe815239e527b1d}{{5.1}{42}{Variables}{section*.40}{}}
\newlabel{_assets_8h_a23a593123577eb3cf8ea4069a076c44a}{{5.1}{42}{Variables}{section*.40}{}}
\newlabel{_assets_8h_a57ee6eeaa99fb3ce97cd93623d76cbca}{{5.1}{42}{Variables}{section*.40}{}}
\newlabel{_assets_8h_a07806e330cc94ef70af2106f43c884f4}{{5.1}{42}{Variables}{section*.40}{}}
\newlabel{_assets_8h_a85b828222d1aea0d17a3f7fb3d0cde6e}{{5.1}{42}{Variables}{section*.40}{}}
\newlabel{_assets_8h_a8f4171dd10ab63e244269affb90a8d24}{{5.1}{42}{Variables}{section*.40}{}}
\newlabel{_assets_8h_a36ab92d0afc9cec534c1cd34b8b0f4d1}{{5.1}{42}{Variables}{section*.40}{}}
\newlabel{_assets_8h_acd1c85023b89a6ac55df1ea12d627860}{{5.1}{42}{Variables}{section*.40}{}}
\newlabel{_assets_8h_a2f59fd10ccc42b488fb169789835c925}{{5.1}{42}{Variables}{section*.40}{}}
\newlabel{_assets_8h_a4e46bec442ab6cc1eecfd4f0c5bdf880}{{5.1}{42}{Variables}{section*.40}{}}
\newlabel{_assets_8h_accc555ac3f71e57db080294d698ca611}{{5.1}{42}{Variables}{section*.40}{}}
\newlabel{_assets_8h_a5ec42e23ea817d640125b272b778bea6}{{5.1}{42}{Variables}{section*.40}{}}
\newlabel{_assets_8h_ac76cc19eca367d3425d4786e4b7ad8ff}{{5.1}{42}{Variables}{section*.40}{}}
\newlabel{_assets_8h_a5b9d8396bf25421507f14ebf251abc94}{{5.1}{42}{Variables}{section*.40}{}}
\newlabel{_assets_8h_a081495a97feb934211b53a3856c5c723}{{5.1}{42}{Variables}{section*.40}{}}
\newlabel{_assets_8h_a18bb985255bb1563694740c0777f1374}{{5.1}{42}{Variables}{section*.40}{}}
\newlabel{_assets_8h_a264bec812e434255e92365ccbbdd529e}{{5.1}{42}{Variables}{section*.40}{}}
\newlabel{_assets_8h_ae4d7714601a6465c0b89d01fb58b1282}{{5.1}{42}{Variables}{section*.40}{}}
\newlabel{_assets_8h_a7fedab8eddd50127ebbd9e06ddceacab}{{5.1}{42}{Variables}{section*.40}{}}
\@writefile{toc}{\contentsline {subsection}{\numberline {5.1.1}Detailed Description}{42}{subsection.5.1.1}\protected@file@percent }
\@writefile{toc}{\contentsline {section}{\numberline {5.2}semcode/include/\discretionary {\mbox  {\scriptsize  $\hookleftarrow  $}}{}{}Bullet.h File Reference}{43}{section.5.2}\protected@file@percent }
\newlabel{_bullet_8h}{{5.2}{43}{semcode/include/\+Bullet.h File Reference}{section.5.2}{}}
\newlabel{_bullet_8h_a224b9163917ac32fc95a60d8c1eec3aa}{{5.2}{44}{Enumerations}{section*.44}{}}
\newlabel{_bullet_8h_af5faff882d7cbf37739cd0aa9d24b31b}{{5.2}{44}{Enumerations}{section*.44}{}}
\@writefile{toc}{\contentsline {subsection}{\numberline {5.2.1}Detailed Description}{44}{subsection.5.2.1}\protected@file@percent }
\@writefile{toc}{\contentsline {section}{\numberline {5.3}semcode/include/\discretionary {\mbox  {\scriptsize  $\hookleftarrow  $}}{}{}Bunker.h File Reference}{44}{section.5.3}\protected@file@percent }
\newlabel{_bunker_8h}{{5.3}{44}{semcode/include/\+Bunker.h File Reference}{section.5.3}{}}
\@writefile{toc}{\contentsline {subsection}{\numberline {5.3.1}Detailed Description}{45}{subsection.5.3.1}\protected@file@percent }
\@writefile{toc}{\contentsline {section}{\numberline {5.4}semcode/include/\discretionary {\mbox  {\scriptsize  $\hookleftarrow  $}}{}{}Display.h File Reference}{45}{section.5.4}\protected@file@percent }
\newlabel{_display_8h}{{5.4}{45}{semcode/include/\+Display.h File Reference}{section.5.4}{}}
\newlabel{_display_8h_a241aeeb764887ae5e3de58b98f04b16d}{{5.4}{46}{Macros}{section*.51}{}}
\newlabel{_display_8h_aed89bd71aee8be823e8a20ec4e093c1e}{{5.4}{46}{Macros}{section*.51}{}}
\newlabel{_display_8h_aa32186d97ed8f916a9ff232b5b807268}{{5.4}{46}{Typedefs}{section*.52}{}}
\@writefile{toc}{\contentsline {subsection}{\numberline {5.4.1}Detailed Description}{46}{subsection.5.4.1}\protected@file@percent }
\@writefile{toc}{\contentsline {section}{\numberline {5.5}semcode/include/\discretionary {\mbox  {\scriptsize  $\hookleftarrow  $}}{}{}Enemy.h File Reference}{46}{section.5.5}\protected@file@percent }
\newlabel{_enemy_8h}{{5.5}{46}{semcode/include/\+Enemy.h File Reference}{section.5.5}{}}
\newlabel{_enemy_8h_afa7c83b36b8a04d477dd0b7ce04e07ca}{{5.5}{47}{Enumerations}{section*.56}{}}
\@writefile{toc}{\contentsline {subsection}{\numberline {5.5.1}Detailed Description}{48}{subsection.5.5.1}\protected@file@percent }
\@writefile{toc}{\contentsline {section}{\numberline {5.6}semcode/include/\discretionary {\mbox  {\scriptsize  $\hookleftarrow  $}}{}{}Entity.h File Reference}{48}{section.5.6}\protected@file@percent }
\newlabel{_entity_8h}{{5.6}{48}{semcode/include/\+Entity.h File Reference}{section.5.6}{}}
\@writefile{toc}{\contentsline {subsection}{\numberline {5.6.1}Detailed Description}{49}{subsection.5.6.1}\protected@file@percent }
\@writefile{toc}{\contentsline {section}{\numberline {5.7}semcode/include/\discretionary {\mbox  {\scriptsize  $\hookleftarrow  $}}{}{}Game.h File Reference}{49}{section.5.7}\protected@file@percent }
\newlabel{_game_8h}{{5.7}{49}{semcode/include/\+Game.h File Reference}{section.5.7}{}}
\newlabel{_game_8h_a7899b65f1ea0f655e4bbf8d2a5714285}{{5.7}{50}{Enumerations}{section*.62}{}}
\@writefile{toc}{\contentsline {subsection}{\numberline {5.7.1}Detailed Description}{50}{subsection.5.7.1}\protected@file@percent }
\gdef \LT@xxxviii {\LT@entry 
    {3}{53.1373pt}\LT@entry 
    {3}{143.64389pt}}
\gdef \LT@xxxix {\LT@entry 
    {3}{36.53268pt}\LT@entry 
    {3}{113.94478pt}}
\gdef \LT@xl {\LT@entry 
    {3}{45.6315pt}\LT@entry 
    {3}{81.8517pt}}
\@writefile{toc}{\contentsline {subsection}{\numberline {5.7.2}Function Documentation}{51}{subsection.5.7.2}\protected@file@percent }
\newlabel{_game_8h_a8beebd213a8a7ae04c447c683acc28a6}{{5.7.2}{51}{Function Documentation}{subsection.5.7.2}{}}
\@writefile{toc}{\contentsline {subsubsection}{\numberline {5.7.2.1}bunkerHit()}{51}{subsubsection.5.7.2.1}\protected@file@percent }
\newlabel{_game_8h_ab8648f183b6afd73ab88991c1088288d}{{5.7.2.1}{51}{\texorpdfstring {bunkerHit()}{bunkerHit()}}{table.5.1}{}}
\@writefile{toc}{\contentsline {subsubsection}{\numberline {5.7.2.2}clearPixelGrid()}{51}{subsubsection.5.7.2.2}\protected@file@percent }
\newlabel{_game_8h_ac95c556fe8cefe0664b0a06436a1d1e2}{{5.7.2.2}{51}{\texorpdfstring {clearPixelGrid()}{clearPixelGrid()}}{table.5.2}{}}
\@writefile{toc}{\contentsline {subsubsection}{\numberline {5.7.2.3}drawBunkers()}{51}{subsubsection.5.7.2.3}\protected@file@percent }
\gdef \LT@xli {\LT@entry 
    {3}{55.31522pt}\LT@entry 
    {3}{143.64389pt}}
\gdef \LT@xlii {\LT@entry 
    {3}{55.31522pt}\LT@entry 
    {3}{111.08313pt}}
\newlabel{_game_8h_ad82b8ea9e127cdb9e5c4fba956708980}{{5.7.2.3}{52}{\texorpdfstring {drawBunkers()}{drawBunkers()}}{table.5.3}{}}
\@writefile{toc}{\contentsline {subsubsection}{\numberline {5.7.2.4}enemyHit()}{52}{subsubsection.5.7.2.4}\protected@file@percent }
\newlabel{_game_8h_a0827e7af752f367c83699a2c72839284}{{5.7.2.4}{52}{\texorpdfstring {enemyHit()}{enemyHit()}}{figure.caption.64}{}}
\@writefile{toc}{\contentsline {subsubsection}{\numberline {5.7.2.5}initEnemies()}{52}{subsubsection.5.7.2.5}\protected@file@percent }
\newlabel{_game_8h_a442de02f6ad7a20279a2f1dab3e3697a}{{5.7.2.5}{52}{\texorpdfstring {initEnemies()}{initEnemies()}}{table.5.5}{}}
\gdef \LT@xliii {\LT@entry 
    {3}{48.31311pt}\LT@entry 
    {3}{143.64389pt}}
\@writefile{toc}{\contentsline {subsubsection}{\numberline {5.7.2.6}playerHit()}{53}{subsubsection.5.7.2.6}\protected@file@percent }
\newlabel{_game_8h_ade8a72ebcf0ec939fb5f90e5e6436c93}{{5.7.2.6}{53}{\texorpdfstring {playerHit()}{playerHit()}}{figure.caption.65}{}}
\@writefile{toc}{\contentsline {subsubsection}{\numberline {5.7.2.7}resolveBullets()}{53}{subsubsection.5.7.2.7}\protected@file@percent }
\gdef \LT@xliv {\LT@entry 
    {3}{55.31522pt}\LT@entry 
    {3}{109.54407pt}}
\gdef \LT@xlv {\LT@entry 
    {3}{78.42686pt}\LT@entry 
    {3}{376.81725pt}}
\gdef \LT@xlvi {\LT@entry 
    {3}{58.28522pt}\LT@entry 
    {3}{248.42926pt}}
\newlabel{_game_8h_ab502d1ae167e9216e3c1e07779815442}{{5.7.2.7}{54}{\texorpdfstring {resolveBullets()}{resolveBullets()}}{table.5.7}{}}
\@writefile{toc}{\contentsline {subsubsection}{\numberline {5.7.2.8}resolveEnemies()}{54}{subsubsection.5.7.2.8}\protected@file@percent }
\newlabel{_game_8h_a245452a9808b641f5c4bee6ab59d8c13}{{5.7.2.8}{54}{\texorpdfstring {resolveEnemies()}{resolveEnemies()}}{table.5.8}{}}
\@writefile{toc}{\contentsline {subsubsection}{\numberline {5.7.2.9}resolvePlayer()}{54}{subsubsection.5.7.2.9}\protected@file@percent }
\@writefile{toc}{\contentsline {section}{\numberline {5.8}semcode/include/\discretionary {\mbox  {\scriptsize  $\hookleftarrow  $}}{}{}Keyboard.h File Reference}{55}{section.5.8}\protected@file@percent }
\newlabel{_keyboard_8h}{{5.8}{55}{semcode/include/\+Keyboard.h File Reference}{section.5.8}{}}
\@writefile{toc}{\contentsline {subsection}{\numberline {5.8.1}Detailed Description}{55}{subsection.5.8.1}\protected@file@percent }
\@writefile{toc}{\contentsline {subsection}{\numberline {5.8.2}Function Documentation}{55}{subsection.5.8.2}\protected@file@percent }
\newlabel{_keyboard_8h_ab7fbeef0d8d74bef546849eccb5948ad}{{5.8.2}{55}{Function Documentation}{subsection.5.8.2}{}}
\@writefile{toc}{\contentsline {subsubsection}{\numberline {5.8.2.1}call\_termios()}{55}{subsubsection.5.8.2.1}\protected@file@percent }
\gdef \LT@xlvii {\LT@entry 
    {3}{32.8066pt}\LT@entry 
    {3}{411.88329pt}}
\gdef \LT@xlviii {\LT@entry 
    {3}{59.31113pt}\LT@entry 
    {3}{106.49272pt}}
\newlabel{_keyboard_8h_a6a83fc33c64b1230a53909095af7afc6}{{5.8.2.1}{56}{\texorpdfstring {call\_termios()}{call\_termios()}}{table.5.10}{}}
\@writefile{toc}{\contentsline {subsubsection}{\numberline {5.8.2.2}io\_getc\_timeout()}{56}{subsubsection.5.8.2.2}\protected@file@percent }
\newlabel{_keyboard_8h_a3652ad9d5b60144cbf8495ca78280d57}{{5.8.2.2}{56}{\texorpdfstring {io\_getc\_timeout()}{io\_getc\_timeout()}}{table.5.11}{}}
\@writefile{toc}{\contentsline {subsubsection}{\numberline {5.8.2.3}keyboard()}{56}{subsubsection.5.8.2.3}\protected@file@percent }
\@writefile{toc}{\contentsline {section}{\numberline {5.9}semcode/include/\discretionary {\mbox  {\scriptsize  $\hookleftarrow  $}}{}{}Knobs.h File Reference}{57}{section.5.9}\protected@file@percent }
\newlabel{_knobs_8h}{{5.9}{57}{semcode/include/\+Knobs.h File Reference}{section.5.9}{}}
\@writefile{toc}{\contentsline {subsection}{\numberline {5.9.1}Detailed Description}{57}{subsection.5.9.1}\protected@file@percent }
\@writefile{toc}{\contentsline {section}{\numberline {5.10}semcode/include/\discretionary {\mbox  {\scriptsize  $\hookleftarrow  $}}{}{}L\discretionary {\mbox  {\scriptsize  $\hookleftarrow  $}}{}{}E\discretionary {\mbox  {\scriptsize  $\hookleftarrow  $}}{}{}D\discretionary {\mbox  {\scriptsize  $\hookleftarrow  $}}{}{}Line.h File Reference}{57}{section.5.10}\protected@file@percent }
\newlabel{_l_e_d_line_8h}{{5.10}{57}{semcode/include/\+L\+E\+D\+Line.h File Reference}{section.5.10}{}}
\@writefile{toc}{\contentsline {subsection}{\numberline {5.10.1}Detailed Description}{58}{subsection.5.10.1}\protected@file@percent }
\@writefile{toc}{\contentsline {section}{\numberline {5.11}semcode/include/\discretionary {\mbox  {\scriptsize  $\hookleftarrow  $}}{}{}Menu.h File Reference}{58}{section.5.11}\protected@file@percent }
\newlabel{_menu_8h}{{5.11}{58}{semcode/include/\+Menu.h File Reference}{section.5.11}{}}
\@writefile{toc}{\contentsline {subsection}{\numberline {5.11.1}Detailed Description}{59}{subsection.5.11.1}\protected@file@percent }
\@writefile{toc}{\contentsline {section}{\numberline {5.12}semcode/include/\discretionary {\mbox  {\scriptsize  $\hookleftarrow  $}}{}{}Player.h File Reference}{59}{section.5.12}\protected@file@percent }
\newlabel{_player_8h}{{5.12}{59}{semcode/include/\+Player.h File Reference}{section.5.12}{}}
\@writefile{toc}{\contentsline {subsection}{\numberline {5.12.1}Detailed Description}{61}{subsection.5.12.1}\protected@file@percent }
\@writefile{toc}{\contentsline {section}{\numberline {5.13}semcode/include/\discretionary {\mbox  {\scriptsize  $\hookleftarrow  $}}{}{}R\discretionary {\mbox  {\scriptsize  $\hookleftarrow  $}}{}{}G\discretionary {\mbox  {\scriptsize  $\hookleftarrow  $}}{}{}B\discretionary {\mbox  {\scriptsize  $\hookleftarrow  $}}{}{}L\discretionary {\mbox  {\scriptsize  $\hookleftarrow  $}}{}{}E\discretionary {\mbox  {\scriptsize  $\hookleftarrow  $}}{}{}Ds.h File Reference}{61}{section.5.13}\protected@file@percent }
\newlabel{_r_g_b_l_e_ds_8h}{{5.13}{61}{semcode/include/\+R\+G\+B\+L\+E\+Ds.h File Reference}{section.5.13}{}}
\@writefile{toc}{\contentsline {subsection}{\numberline {5.13.1}Detailed Description}{61}{subsection.5.13.1}\protected@file@percent }
\@writefile{toc}{\contentsline {section}{\numberline {5.14}semcode/include/\discretionary {\mbox  {\scriptsize  $\hookleftarrow  $}}{}{}Sprite.h File Reference}{62}{section.5.14}\protected@file@percent }
\newlabel{_sprite_8h}{{5.14}{62}{semcode/include/\+Sprite.h File Reference}{section.5.14}{}}
\newlabel{_sprite_8h_a0fe3fc2fde15aec879c1d4645c6d81b2}{{5.14}{62}{Typedefs}{section*.87}{}}
\newlabel{_sprite_8h_afaacec76214316c7a2c0b8104f8d142f}{{5.14}{62}{Enumerations}{section*.88}{}}
\newlabel{_sprite_8h_aa2ff88d9b68415104a21c72d1e2f661a}{{5.14}{63}{Functions}{section*.89}{}}
\@writefile{toc}{\contentsline {subsection}{\numberline {5.14.1}Detailed Description}{63}{subsection.5.14.1}\protected@file@percent }
\@writefile{toc}{\contentsline {section}{\numberline {5.15}semcode/include/\discretionary {\mbox  {\scriptsize  $\hookleftarrow  $}}{}{}Text.h File Reference}{63}{section.5.15}\protected@file@percent }
\newlabel{_text_8h}{{5.15}{63}{semcode/include/\+Text.h File Reference}{section.5.15}{}}
\@writefile{toc}{\contentsline {subsection}{\numberline {5.15.1}Detailed Description}{64}{subsection.5.15.1}\protected@file@percent }
\@writefile{toc}{\contentsline {section}{\numberline {5.16}semcode/include/\discretionary {\mbox  {\scriptsize  $\hookleftarrow  $}}{}{}Time\discretionary {\mbox  {\scriptsize  $\hookleftarrow  $}}{}{}Stamp.h File Reference}{64}{section.5.16}\protected@file@percent }
\newlabel{_time_stamp_8h}{{5.16}{64}{semcode/include/\+Time\+Stamp.h File Reference}{section.5.16}{}}
\@writefile{toc}{\contentsline {subsection}{\numberline {5.16.1}Detailed Description}{64}{subsection.5.16.1}\protected@file@percent }
\@writefile{toc}{\contentsline {subsection}{\numberline {5.16.2}Function Documentation}{65}{subsection.5.16.2}\protected@file@percent }
\newlabel{_time_stamp_8h_aed9d96830ed25907006613b5d7e761eb}{{5.16.2}{65}{Function Documentation}{subsection.5.16.2}{}}
\@writefile{toc}{\contentsline {subsubsection}{\numberline {5.16.2.1}currentTimestamp()}{65}{subsubsection.5.16.2.1}\protected@file@percent }
\@writefile{toc}{\contentsline {section}{\numberline {5.17}semcode/source/\discretionary {\mbox  {\scriptsize  $\hookleftarrow  $}}{}{}Assets.cpp File Reference}{65}{section.5.17}\protected@file@percent }
\newlabel{_assets_8cpp}{{5.17}{65}{semcode/source/\+Assets.cpp File Reference}{section.5.17}{}}
\@writefile{toc}{\contentsline {subsection}{\numberline {5.17.1}Detailed Description}{66}{subsection.5.17.1}\protected@file@percent }
\@writefile{toc}{\contentsline {subsection}{\numberline {5.17.2}Variable Documentation}{66}{subsection.5.17.2}\protected@file@percent }
\newlabel{_assets_8cpp_a3f052df3d93c3a9a68f245b0dda5a727}{{5.17.2}{66}{Variable Documentation}{subsection.5.17.2}{}}
\@writefile{toc}{\contentsline {subsubsection}{\numberline {5.17.2.1}AlienA}{66}{subsubsection.5.17.2.1}\protected@file@percent }
\newlabel{_assets_8cpp_a7e5624b5c567c819ea8fcc41873bf292}{{5.17.2.1}{66}{\texorpdfstring {AlienA}{AlienA}}{subsubsection.5.17.2.1}{}}
\@writefile{toc}{\contentsline {subsubsection}{\numberline {5.17.2.2}AlienAMoving}{66}{subsubsection.5.17.2.2}\protected@file@percent }
\newlabel{_assets_8cpp_ae5a522ae63a2d289a160eb5c69fc9927}{{5.17.2.2}{66}{\texorpdfstring {AlienAMoving}{AlienAMoving}}{subsubsection.5.17.2.2}{}}
\@writefile{toc}{\contentsline {subsubsection}{\numberline {5.17.2.3}AlienB}{67}{subsubsection.5.17.2.3}\protected@file@percent }
\newlabel{_assets_8cpp_adbaf819ad88b3a70e1c7f57ca6c315cf}{{5.17.2.3}{67}{\texorpdfstring {AlienB}{AlienB}}{subsubsection.5.17.2.3}{}}
\@writefile{toc}{\contentsline {subsubsection}{\numberline {5.17.2.4}AlienBMoving}{67}{subsubsection.5.17.2.4}\protected@file@percent }
\newlabel{_assets_8cpp_ad13363d918d221742804e9a26e7df041}{{5.17.2.4}{67}{\texorpdfstring {AlienBMoving}{AlienBMoving}}{subsubsection.5.17.2.4}{}}
\@writefile{toc}{\contentsline {subsubsection}{\numberline {5.17.2.5}AlienC}{67}{subsubsection.5.17.2.5}\protected@file@percent }
\newlabel{_assets_8cpp_ad91b0e26b49fbe388f300bdf8f740930}{{5.17.2.5}{67}{\texorpdfstring {AlienC}{AlienC}}{subsubsection.5.17.2.5}{}}
\@writefile{toc}{\contentsline {subsubsection}{\numberline {5.17.2.6}AlienCMoving}{67}{subsubsection.5.17.2.6}\protected@file@percent }
\newlabel{_assets_8cpp_a85b828222d1aea0d17a3f7fb3d0cde6e}{{5.17.2.6}{67}{\texorpdfstring {AlienCMoving}{AlienCMoving}}{subsubsection.5.17.2.6}{}}
\@writefile{toc}{\contentsline {subsubsection}{\numberline {5.17.2.7}AlienExplodingSprite}{67}{subsubsection.5.17.2.7}\protected@file@percent }
\newlabel{_assets_8cpp_a2f59fd10ccc42b488fb169789835c925}{{5.17.2.7}{67}{\texorpdfstring {AlienExplodingSprite}{AlienExplodingSprite}}{subsubsection.5.17.2.7}{}}
\@writefile{toc}{\contentsline {subsubsection}{\numberline {5.17.2.8}AlienShotExploding}{68}{subsubsection.5.17.2.8}\protected@file@percent }
\newlabel{_assets_8cpp_ae4d7714601a6465c0b89d01fb58b1282}{{5.17.2.8}{68}{\texorpdfstring {AlienShotExploding}{AlienShotExploding}}{subsubsection.5.17.2.8}{}}
\@writefile{toc}{\contentsline {subsubsection}{\numberline {5.17.2.9}FlyingSaucerSprite}{68}{subsubsection.5.17.2.9}\protected@file@percent }
\newlabel{_assets_8cpp_aa8109d430212788aafe815239e527b1d}{{5.17.2.9}{68}{\texorpdfstring {FlyingSaucerSprite}{FlyingSaucerSprite}}{subsubsection.5.17.2.9}{}}
\@writefile{toc}{\contentsline {subsubsection}{\numberline {5.17.2.10}PlayerBlowupSprite1}{68}{subsubsection.5.17.2.10}\protected@file@percent }
\newlabel{_assets_8cpp_a23a593123577eb3cf8ea4069a076c44a}{{5.17.2.10}{68}{\texorpdfstring {PlayerBlowupSprite1}{PlayerBlowupSprite1}}{subsubsection.5.17.2.10}{}}
\@writefile{toc}{\contentsline {subsubsection}{\numberline {5.17.2.11}PlayerBlowupSprite2}{68}{subsubsection.5.17.2.11}\protected@file@percent }
\newlabel{_assets_8cpp_a07806e330cc94ef70af2106f43c884f4}{{5.17.2.11}{68}{\texorpdfstring {PlayerBlowupSprite2}{PlayerBlowupSprite2}}{subsubsection.5.17.2.11}{}}
\@writefile{toc}{\contentsline {subsubsection}{\numberline {5.17.2.12}PlayerShotExploding}{69}{subsubsection.5.17.2.12}\protected@file@percent }
\newlabel{_assets_8cpp_a57ee6eeaa99fb3ce97cd93623d76cbca}{{5.17.2.12}{69}{\texorpdfstring {PlayerShotExploding}{PlayerShotExploding}}{subsubsection.5.17.2.12}{}}
\@writefile{toc}{\contentsline {subsubsection}{\numberline {5.17.2.13}PlayerShotSprite}{69}{subsubsection.5.17.2.13}\protected@file@percent }
\newlabel{_assets_8cpp_a112793433766e1e73eae6671c7a996e3}{{5.17.2.13}{69}{\texorpdfstring {PlayerShotSprite}{PlayerShotSprite}}{subsubsection.5.17.2.13}{}}
\@writefile{toc}{\contentsline {subsubsection}{\numberline {5.17.2.14}PlayerSprite}{69}{subsubsection.5.17.2.14}\protected@file@percent }
\newlabel{_assets_8cpp_a4e46bec442ab6cc1eecfd4f0c5bdf880}{{5.17.2.14}{69}{\texorpdfstring {PlayerSprite}{PlayerSprite}}{subsubsection.5.17.2.14}{}}
\@writefile{toc}{\contentsline {subsubsection}{\numberline {5.17.2.15}PlungerShotSpite1}{69}{subsubsection.5.17.2.15}\protected@file@percent }
\newlabel{_assets_8cpp_accc555ac3f71e57db080294d698ca611}{{5.17.2.15}{69}{\texorpdfstring {PlungerShotSpite1}{PlungerShotSpite1}}{subsubsection.5.17.2.15}{}}
\@writefile{toc}{\contentsline {subsubsection}{\numberline {5.17.2.16}PlungerShotSpite2}{69}{subsubsection.5.17.2.16}\protected@file@percent }
\newlabel{_assets_8cpp_a5ec42e23ea817d640125b272b778bea6}{{5.17.2.16}{69}{\texorpdfstring {PlungerShotSpite2}{PlungerShotSpite2}}{subsubsection.5.17.2.16}{}}
\@writefile{toc}{\contentsline {subsubsection}{\numberline {5.17.2.17}PlungerShotSpite3}{70}{subsubsection.5.17.2.17}\protected@file@percent }
\newlabel{_assets_8cpp_ac76cc19eca367d3425d4786e4b7ad8ff}{{5.17.2.17}{70}{\texorpdfstring {PlungerShotSpite3}{PlungerShotSpite3}}{subsubsection.5.17.2.17}{}}
\@writefile{toc}{\contentsline {subsubsection}{\numberline {5.17.2.18}PlungerShotSpite4}{70}{subsubsection.5.17.2.18}\protected@file@percent }
\newlabel{_assets_8cpp_a5b9d8396bf25421507f14ebf251abc94}{{5.17.2.18}{70}{\texorpdfstring {PlungerShotSpite4}{PlungerShotSpite4}}{subsubsection.5.17.2.18}{}}
\@writefile{toc}{\contentsline {subsubsection}{\numberline {5.17.2.19}RollingShotSprite1}{70}{subsubsection.5.17.2.19}\protected@file@percent }
\newlabel{_assets_8cpp_a081495a97feb934211b53a3856c5c723}{{5.17.2.19}{70}{\texorpdfstring {RollingShotSprite1}{RollingShotSprite1}}{subsubsection.5.17.2.19}{}}
\@writefile{toc}{\contentsline {subsubsection}{\numberline {5.17.2.20}RollingShotSprite2}{70}{subsubsection.5.17.2.20}\protected@file@percent }
\newlabel{_assets_8cpp_a18bb985255bb1563694740c0777f1374}{{5.17.2.20}{70}{\texorpdfstring {RollingShotSprite2}{RollingShotSprite2}}{subsubsection.5.17.2.20}{}}
\@writefile{toc}{\contentsline {subsubsection}{\numberline {5.17.2.21}RollingShotSprite3}{70}{subsubsection.5.17.2.21}\protected@file@percent }
\newlabel{_assets_8cpp_a264bec812e434255e92365ccbbdd529e}{{5.17.2.21}{70}{\texorpdfstring {RollingShotSprite3}{RollingShotSprite3}}{subsubsection.5.17.2.21}{}}
\@writefile{toc}{\contentsline {subsubsection}{\numberline {5.17.2.22}ShieldImage}{71}{subsubsection.5.17.2.22}\protected@file@percent }
\newlabel{_assets_8cpp_a7fedab8eddd50127ebbd9e06ddceacab}{{5.17.2.22}{71}{\texorpdfstring {ShieldImage}{ShieldImage}}{subsubsection.5.17.2.22}{}}
\@writefile{toc}{\contentsline {subsubsection}{\numberline {5.17.2.23}SpriteSaucerExp}{71}{subsubsection.5.17.2.23}\protected@file@percent }
\newlabel{_assets_8cpp_a8f4171dd10ab63e244269affb90a8d24}{{5.17.2.23}{71}{\texorpdfstring {SpriteSaucerExp}{SpriteSaucerExp}}{subsubsection.5.17.2.23}{}}
\@writefile{toc}{\contentsline {subsubsection}{\numberline {5.17.2.24}SquiglyShotSprite1}{71}{subsubsection.5.17.2.24}\protected@file@percent }
\newlabel{_assets_8cpp_a36ab92d0afc9cec534c1cd34b8b0f4d1}{{5.17.2.24}{71}{\texorpdfstring {SquiglyShotSprite1}{SquiglyShotSprite1}}{subsubsection.5.17.2.24}{}}
\@writefile{toc}{\contentsline {subsubsection}{\numberline {5.17.2.25}SquiglyShotSprite2}{71}{subsubsection.5.17.2.25}\protected@file@percent }
\newlabel{_assets_8cpp_acd1c85023b89a6ac55df1ea12d627860}{{5.17.2.25}{71}{\texorpdfstring {SquiglyShotSprite2}{SquiglyShotSprite2}}{subsubsection.5.17.2.25}{}}
\@writefile{toc}{\contentsline {subsubsection}{\numberline {5.17.2.26}SquiglyShotSprite3}{71}{subsubsection.5.17.2.26}\protected@file@percent }
\@writefile{toc}{\contentsline {section}{\numberline {5.18}semcode/source/\discretionary {\mbox  {\scriptsize  $\hookleftarrow  $}}{}{}Bullet.cpp File Reference}{72}{section.5.18}\protected@file@percent }
\newlabel{_bullet_8cpp}{{5.18}{72}{semcode/source/\+Bullet.cpp File Reference}{section.5.18}{}}
\@writefile{toc}{\contentsline {subsection}{\numberline {5.18.1}Detailed Description}{72}{subsection.5.18.1}\protected@file@percent }
\@writefile{toc}{\contentsline {section}{\numberline {5.19}semcode/source/\discretionary {\mbox  {\scriptsize  $\hookleftarrow  $}}{}{}Bunker.cpp File Reference}{72}{section.5.19}\protected@file@percent }
\newlabel{_bunker_8cpp}{{5.19}{72}{semcode/source/\+Bunker.cpp File Reference}{section.5.19}{}}
\@writefile{toc}{\contentsline {subsection}{\numberline {5.19.1}Detailed Description}{73}{subsection.5.19.1}\protected@file@percent }
\@writefile{toc}{\contentsline {section}{\numberline {5.20}semcode/source/\discretionary {\mbox  {\scriptsize  $\hookleftarrow  $}}{}{}Display.cpp File Reference}{73}{section.5.20}\protected@file@percent }
\newlabel{_display_8cpp}{{5.20}{73}{semcode/source/\+Display.cpp File Reference}{section.5.20}{}}
\@writefile{toc}{\contentsline {subsection}{\numberline {5.20.1}Detailed Description}{74}{subsection.5.20.1}\protected@file@percent }
\@writefile{toc}{\contentsline {section}{\numberline {5.21}semcode/source/\discretionary {\mbox  {\scriptsize  $\hookleftarrow  $}}{}{}Enemy.cpp File Reference}{74}{section.5.21}\protected@file@percent }
\newlabel{_enemy_8cpp}{{5.21}{74}{semcode/source/\+Enemy.cpp File Reference}{section.5.21}{}}
\@writefile{toc}{\contentsline {subsection}{\numberline {5.21.1}Detailed Description}{75}{subsection.5.21.1}\protected@file@percent }
\@writefile{toc}{\contentsline {section}{\numberline {5.22}semcode/source/\discretionary {\mbox  {\scriptsize  $\hookleftarrow  $}}{}{}Entity.cpp File Reference}{75}{section.5.22}\protected@file@percent }
\newlabel{_entity_8cpp}{{5.22}{75}{semcode/source/\+Entity.cpp File Reference}{section.5.22}{}}
\@writefile{toc}{\contentsline {subsection}{\numberline {5.22.1}Detailed Description}{76}{subsection.5.22.1}\protected@file@percent }
\@writefile{toc}{\contentsline {section}{\numberline {5.23}semcode/source/\discretionary {\mbox  {\scriptsize  $\hookleftarrow  $}}{}{}Game.cpp File Reference}{76}{section.5.23}\protected@file@percent }
\newlabel{_game_8cpp}{{5.23}{76}{semcode/source/\+Game.cpp File Reference}{section.5.23}{}}
\newlabel{_game_8cpp_a241aeeb764887ae5e3de58b98f04b16d}{{5.23}{77}{Macros}{section*.104}{}}
\newlabel{_game_8cpp_aed89bd71aee8be823e8a20ec4e093c1e}{{5.23}{77}{Macros}{section*.104}{}}
\newlabel{_game_8cpp_a6efb55160ed012c36152177dc9ba80a0}{{5.23}{77}{Macros}{section*.104}{}}
\newlabel{_game_8cpp_a847cdb0d0cd82c35ab628a5edca7300a}{{5.23}{77}{Macros}{section*.104}{}}
\newlabel{_game_8cpp_a7a9c5cc1234cf75becac564df51376c1}{{5.23}{77}{Macros}{section*.104}{}}
\newlabel{_game_8cpp_a300c77e3a039b48c6c22d265233eacaa}{{5.23}{77}{Macros}{section*.104}{}}
\newlabel{_game_8cpp_aa07d1f9121e23c379796181257f6794c}{{5.23}{77}{Macros}{section*.104}{}}
\newlabel{_game_8cpp_a4a0c150e32188089d10bbf63df94f39e}{{5.23}{77}{Macros}{section*.104}{}}
\newlabel{_game_8cpp_a95b289b51f99681f0463da12d5f2dc36}{{5.23}{77}{Macros}{section*.104}{}}
\newlabel{_game_8cpp_aaf2e9b905212ea32db812654b44d01fd}{{5.23}{77}{Macros}{section*.104}{}}
\newlabel{_game_8cpp_a100ee7a6130191e82a298ea3f1155666}{{5.23}{77}{Macros}{section*.104}{}}
\gdef \LT@xlix {\LT@entry 
    {3}{53.1373pt}\LT@entry 
    {3}{143.64389pt}}
\@writefile{toc}{\contentsline {subsection}{\numberline {5.23.1}Detailed Description}{78}{subsection.5.23.1}\protected@file@percent }
\@writefile{toc}{\contentsline {subsection}{\numberline {5.23.2}Function Documentation}{78}{subsection.5.23.2}\protected@file@percent }
\newlabel{_game_8cpp_a8beebd213a8a7ae04c447c683acc28a6}{{5.23.2}{78}{Function Documentation}{subsection.5.23.2}{}}
\@writefile{toc}{\contentsline {subsubsection}{\numberline {5.23.2.1}bunkerHit()}{78}{subsubsection.5.23.2.1}\protected@file@percent }
\newlabel{_game_8cpp_ab8648f183b6afd73ab88991c1088288d}{{5.23.2.1}{78}{\texorpdfstring {bunkerHit()}{bunkerHit()}}{table.5.12}{}}
\@writefile{toc}{\contentsline {subsubsection}{\numberline {5.23.2.2}clearPixelGrid()}{78}{subsubsection.5.23.2.2}\protected@file@percent }
\gdef \LT@l {\LT@entry 
    {3}{36.53268pt}\LT@entry 
    {3}{113.94478pt}}
\gdef \LT@li {\LT@entry 
    {3}{45.6315pt}\LT@entry 
    {3}{81.8517pt}}
\gdef \LT@lii {\LT@entry 
    {3}{55.31522pt}\LT@entry 
    {3}{143.64389pt}}
\newlabel{_game_8cpp_ac95c556fe8cefe0664b0a06436a1d1e2}{{5.23.2.2}{79}{\texorpdfstring {clearPixelGrid()}{clearPixelGrid()}}{table.5.13}{}}
\@writefile{toc}{\contentsline {subsubsection}{\numberline {5.23.2.3}drawBunkers()}{79}{subsubsection.5.23.2.3}\protected@file@percent }
\newlabel{_game_8cpp_ad82b8ea9e127cdb9e5c4fba956708980}{{5.23.2.3}{79}{\texorpdfstring {drawBunkers()}{drawBunkers()}}{table.5.14}{}}
\@writefile{toc}{\contentsline {subsubsection}{\numberline {5.23.2.4}enemyHit()}{79}{subsubsection.5.23.2.4}\protected@file@percent }
\gdef \LT@liii {\LT@entry 
    {3}{55.31522pt}\LT@entry 
    {3}{111.08313pt}}
\gdef \LT@liv {\LT@entry 
    {3}{48.31311pt}\LT@entry 
    {3}{143.64389pt}}
\newlabel{_game_8cpp_a0827e7af752f367c83699a2c72839284}{{5.23.2.4}{80}{\texorpdfstring {enemyHit()}{enemyHit()}}{figure.caption.106}{}}
\@writefile{toc}{\contentsline {subsubsection}{\numberline {5.23.2.5}initEnemies()}{80}{subsubsection.5.23.2.5}\protected@file@percent }
\newlabel{_game_8cpp_a442de02f6ad7a20279a2f1dab3e3697a}{{5.23.2.5}{80}{\texorpdfstring {initEnemies()}{initEnemies()}}{table.5.16}{}}
\@writefile{toc}{\contentsline {subsubsection}{\numberline {5.23.2.6}playerHit()}{80}{subsubsection.5.23.2.6}\protected@file@percent }
\gdef \LT@lv {\LT@entry 
    {3}{55.31522pt}\LT@entry 
    {3}{109.54407pt}}
\newlabel{_game_8cpp_ade8a72ebcf0ec939fb5f90e5e6436c93}{{5.23.2.6}{81}{\texorpdfstring {playerHit()}{playerHit()}}{figure.caption.107}{}}
\@writefile{toc}{\contentsline {subsubsection}{\numberline {5.23.2.7}resolveBullets()}{81}{subsubsection.5.23.2.7}\protected@file@percent }
\newlabel{_game_8cpp_ab502d1ae167e9216e3c1e07779815442}{{5.23.2.7}{81}{\texorpdfstring {resolveBullets()}{resolveBullets()}}{table.5.18}{}}
\gdef \LT@lvi {\LT@entry 
    {3}{78.42686pt}\LT@entry 
    {3}{376.81725pt}}
\gdef \LT@lvii {\LT@entry 
    {3}{58.28522pt}\LT@entry 
    {3}{248.42926pt}}
\@writefile{toc}{\contentsline {subsubsection}{\numberline {5.23.2.8}resolveEnemies()}{82}{subsubsection.5.23.2.8}\protected@file@percent }
\newlabel{_game_8cpp_a245452a9808b641f5c4bee6ab59d8c13}{{5.23.2.8}{82}{\texorpdfstring {resolveEnemies()}{resolveEnemies()}}{table.5.19}{}}
\@writefile{toc}{\contentsline {subsubsection}{\numberline {5.23.2.9}resolvePlayer()}{82}{subsubsection.5.23.2.9}\protected@file@percent }
\@writefile{toc}{\contentsline {section}{\numberline {5.24}semcode/source/\discretionary {\mbox  {\scriptsize  $\hookleftarrow  $}}{}{}Keyboard.cpp File Reference}{83}{section.5.24}\protected@file@percent }
\newlabel{_keyboard_8cpp}{{5.24}{83}{semcode/source/\+Keyboard.cpp File Reference}{section.5.24}{}}
\newlabel{_keyboard_8cpp_a45ba202b05caf39795aeca91b0ae547e}{{5.24}{83}{Macros}{section*.110}{}}
\@writefile{toc}{\contentsline {subsection}{\numberline {5.24.1}Detailed Description}{83}{subsection.5.24.1}\protected@file@percent }
\gdef \LT@lviii {\LT@entry 
    {3}{32.8066pt}\LT@entry 
    {3}{411.88329pt}}
\gdef \LT@lix {\LT@entry 
    {3}{59.31113pt}\LT@entry 
    {3}{106.49272pt}}
\@writefile{toc}{\contentsline {subsection}{\numberline {5.24.2}Function Documentation}{84}{subsection.5.24.2}\protected@file@percent }
\newlabel{_keyboard_8cpp_ab7fbeef0d8d74bef546849eccb5948ad}{{5.24.2}{84}{Function Documentation}{subsection.5.24.2}{}}
\@writefile{toc}{\contentsline {subsubsection}{\numberline {5.24.2.1}call\_termios()}{84}{subsubsection.5.24.2.1}\protected@file@percent }
\newlabel{_keyboard_8cpp_a6a83fc33c64b1230a53909095af7afc6}{{5.24.2.1}{84}{\texorpdfstring {call\_termios()}{call\_termios()}}{table.5.21}{}}
\@writefile{toc}{\contentsline {subsubsection}{\numberline {5.24.2.2}io\_getc\_timeout()}{84}{subsubsection.5.24.2.2}\protected@file@percent }
\newlabel{_keyboard_8cpp_a3652ad9d5b60144cbf8495ca78280d57}{{5.24.2.2}{84}{\texorpdfstring {io\_getc\_timeout()}{io\_getc\_timeout()}}{table.5.22}{}}
\@writefile{toc}{\contentsline {subsubsection}{\numberline {5.24.2.3}keyboard()}{84}{subsubsection.5.24.2.3}\protected@file@percent }
\@writefile{toc}{\contentsline {section}{\numberline {5.25}semcode/source/\discretionary {\mbox  {\scriptsize  $\hookleftarrow  $}}{}{}Knobs.cpp File Reference}{85}{section.5.25}\protected@file@percent }
\newlabel{_knobs_8cpp}{{5.25}{85}{semcode/source/\+Knobs.cpp File Reference}{section.5.25}{}}
\@writefile{toc}{\contentsline {subsection}{\numberline {5.25.1}Detailed Description}{85}{subsection.5.25.1}\protected@file@percent }
\@writefile{toc}{\contentsline {section}{\numberline {5.26}semcode/source/\discretionary {\mbox  {\scriptsize  $\hookleftarrow  $}}{}{}L\discretionary {\mbox  {\scriptsize  $\hookleftarrow  $}}{}{}E\discretionary {\mbox  {\scriptsize  $\hookleftarrow  $}}{}{}D\discretionary {\mbox  {\scriptsize  $\hookleftarrow  $}}{}{}Line.cpp File Reference}{85}{section.5.26}\protected@file@percent }
\newlabel{_l_e_d_line_8cpp}{{5.26}{85}{semcode/source/\+L\+E\+D\+Line.cpp File Reference}{section.5.26}{}}
\@writefile{toc}{\contentsline {subsection}{\numberline {5.26.1}Detailed Description}{86}{subsection.5.26.1}\protected@file@percent }
\@writefile{toc}{\contentsline {section}{\numberline {5.27}semcode/source/main.cpp File Reference}{86}{section.5.27}\protected@file@percent }
\newlabel{main_8cpp}{{5.27}{86}{semcode/source/main.cpp File Reference}{section.5.27}{}}
\newlabel{main_8cpp_a3024ccd4a9af5109d24e6c57565d74a1}{{5.27}{87}{Macros}{section*.116}{}}
\newlabel{main_8cpp_a241aeeb764887ae5e3de58b98f04b16d}{{5.27}{87}{Macros}{section*.116}{}}
\newlabel{main_8cpp_aed89bd71aee8be823e8a20ec4e093c1e}{{5.27}{87}{Macros}{section*.116}{}}
\newlabel{main_8cpp_ac2b5c63a65f380b32073fc83cff5c69d}{{5.27}{87}{Macros}{section*.116}{}}
\newlabel{main_8cpp_a6b4ee6a19fc0bdf65dbdf7d77c853bd5}{{5.27}{87}{Macros}{section*.116}{}}
\newlabel{main_8cpp_a57546c86a87e07fab820bf511ba41551}{{5.27}{87}{Macros}{section*.116}{}}
\newlabel{main_8cpp_aa86589362274dfabb3542d37bb3b0bed}{{5.27}{87}{Macros}{section*.116}{}}
\newlabel{main_8cpp_a476913f7aedd77e1b809756be08a3c1f}{{5.27}{87}{Macros}{section*.116}{}}
\newlabel{main_8cpp_a0ddf1224851353fc92bfbff6f499fa97}{{5.27}{87}{Functions}{section*.117}{}}
\@writefile{toc}{\contentsline {subsection}{\numberline {5.27.1}Detailed Description}{87}{subsection.5.27.1}\protected@file@percent }
\@writefile{toc}{\contentsline {section}{\numberline {5.28}semcode/source/\discretionary {\mbox  {\scriptsize  $\hookleftarrow  $}}{}{}Menu.cpp File Reference}{87}{section.5.28}\protected@file@percent }
\newlabel{_menu_8cpp}{{5.28}{87}{semcode/source/\+Menu.cpp File Reference}{section.5.28}{}}
\@writefile{toc}{\contentsline {subsection}{\numberline {5.28.1}Detailed Description}{88}{subsection.5.28.1}\protected@file@percent }
\@writefile{toc}{\contentsline {section}{\numberline {5.29}semcode/source/\discretionary {\mbox  {\scriptsize  $\hookleftarrow  $}}{}{}Player.cpp File Reference}{88}{section.5.29}\protected@file@percent }
\newlabel{_player_8cpp}{{5.29}{88}{semcode/source/\+Player.cpp File Reference}{section.5.29}{}}
\@writefile{toc}{\contentsline {subsection}{\numberline {5.29.1}Detailed Description}{89}{subsection.5.29.1}\protected@file@percent }
\@writefile{toc}{\contentsline {section}{\numberline {5.30}semcode/source/\discretionary {\mbox  {\scriptsize  $\hookleftarrow  $}}{}{}R\discretionary {\mbox  {\scriptsize  $\hookleftarrow  $}}{}{}G\discretionary {\mbox  {\scriptsize  $\hookleftarrow  $}}{}{}B\discretionary {\mbox  {\scriptsize  $\hookleftarrow  $}}{}{}L\discretionary {\mbox  {\scriptsize  $\hookleftarrow  $}}{}{}E\discretionary {\mbox  {\scriptsize  $\hookleftarrow  $}}{}{}Ds.cpp File Reference}{89}{section.5.30}\protected@file@percent }
\newlabel{_r_g_b_l_e_ds_8cpp}{{5.30}{89}{semcode/source/\+R\+G\+B\+L\+E\+Ds.cpp File Reference}{section.5.30}{}}
\@writefile{toc}{\contentsline {subsection}{\numberline {5.30.1}Detailed Description}{90}{subsection.5.30.1}\protected@file@percent }
\@writefile{toc}{\contentsline {section}{\numberline {5.31}semcode/source/\discretionary {\mbox  {\scriptsize  $\hookleftarrow  $}}{}{}Sprite.cpp File Reference}{90}{section.5.31}\protected@file@percent }
\newlabel{_sprite_8cpp}{{5.31}{90}{semcode/source/\+Sprite.cpp File Reference}{section.5.31}{}}
\newlabel{_sprite_8cpp_aa2ff88d9b68415104a21c72d1e2f661a}{{5.31}{91}{Functions}{section*.122}{}}
\@writefile{toc}{\contentsline {subsection}{\numberline {5.31.1}Detailed Description}{91}{subsection.5.31.1}\protected@file@percent }
\@writefile{toc}{\contentsline {section}{\numberline {5.32}semcode/source/\discretionary {\mbox  {\scriptsize  $\hookleftarrow  $}}{}{}Text.cpp File Reference}{91}{section.5.32}\protected@file@percent }
\newlabel{_text_8cpp}{{5.32}{91}{semcode/source/\+Text.cpp File Reference}{section.5.32}{}}
\@writefile{toc}{\contentsline {subsection}{\numberline {5.32.1}Detailed Description}{91}{subsection.5.32.1}\protected@file@percent }
\@writefile{toc}{\contentsline {section}{\numberline {5.33}semcode/source/\discretionary {\mbox  {\scriptsize  $\hookleftarrow  $}}{}{}Time\discretionary {\mbox  {\scriptsize  $\hookleftarrow  $}}{}{}Stamp.cpp File Reference}{92}{section.5.33}\protected@file@percent }
\newlabel{_time_stamp_8cpp}{{5.33}{92}{semcode/source/\+Time\+Stamp.cpp File Reference}{section.5.33}{}}
\@writefile{toc}{\contentsline {subsection}{\numberline {5.33.1}Detailed Description}{92}{subsection.5.33.1}\protected@file@percent }
\@writefile{toc}{\contentsline {subsection}{\numberline {5.33.2}Function Documentation}{92}{subsection.5.33.2}\protected@file@percent }
\newlabel{_time_stamp_8cpp_aed9d96830ed25907006613b5d7e761eb}{{5.33.2}{92}{Function Documentation}{subsection.5.33.2}{}}
\@writefile{toc}{\contentsline {subsubsection}{\numberline {5.33.2.1}currentTimestamp()}{92}{subsubsection.5.33.2.1}\protected@file@percent }
\@writefile{toc}{\contentsline {chapter}{Index}{93}{section*.126}\protected@file@percent }
